{
    "fluentMethods": true,
    "relationships": [],
    "fields": [
        {
            "fieldName": "channelName",
            "fieldType": "String",
            "fieldValidateRules": [
                "required"
            ]
        }
    ],
    "changelogDate": "20170427104325",
    "entityTableName": "channel",
    "dto": "mapstruct",
    "pagination": "no",
    "service": "serviceImpl",
    "searchEngine": "elasticsearch"
}